[Project Header]
Version = 1001
Pathname = "/c/Users/rgirish2/Desktop/Fresnel_diff/Fresdiff1.prj"
CVI Dir = "/c/program files/national instruments/cvi2010"
CVI Shared Dir = "/C/Program Files/National Instruments/Shared/CVI"
CVI Pub Local Dir = "/C/ProgramData/National Instruments/CVI2010"
CVI Pub Global Dir = "/C/ProgramData/National Instruments/CVI"
IVI Standard Root Dir = "/C/Program Files/IVI Foundation/IVI"
VXIplug&play Framework Dir = "/C/Program Files/IVI Foundation/VISA/winnt"
IVI Standard Root 64-bit Dir = "/C/Program Files/IVI Foundation/IVI"
VXIplug&play Framework 64-bit Dir = "/C/Program Files/IVI Foundation/VISA/win64"
Number of Files = 3
Target Type = "Executable"
Flags = 16
Copied From Locked InstrDrv Directory = False
Copied from VXIPNP Directory = False
Locked InstrDrv Name = ""
Don't Display Deploy InstrDrv Dialog = False

[File 0001]
File Type = "CSource"
Res Id = 1
Path Is Rel = True
Path Rel To = "Project"
Path Rel Path = "Fresdiff1.c"
Path = "/c/Users/rgirish2/Desktop/Fresnel_diff/Fresdiff1.c"
Exclude = False
Compile Into Object File = False
Project Flags = 0
Folder = "Source Files"

[File 0002]
File Type = "Include"
Res Id = 2
Path Is Rel = True
Path Rel To = "Project"
Path Rel Path = "Fresdiff1.h"
Path = "/c/Users/rgirish2/Desktop/Fresnel_diff/Fresdiff1.h"
Exclude = False
Project Flags = 0
Folder = "Include Files"

[File 0003]
File Type = "User Interface Resource"
Res Id = 3
Path Is Rel = True
Path Rel To = "Project"
Path Rel Path = "Fresdiff1.uir"
Path = "/c/Users/rgirish2/Desktop/Fresnel_diff/Fresdiff1.uir"
Exclude = False
Project Flags = 0
Folder = "User Interface Files"

[Folders]
Instrument Files Folder Not Added Yet = True
Folder 0 = "Include Files"
Folder 1 = "User Interface Files"
Folder 2 = "Source Files"

[Custom Build Configs]
Num Custom Build Configs = 0

[Default Build Config Debug]
Config Name = "Debug"
Is 64-Bit = False
Is Release = False
Default Calling Convention = "cdecl"
Uninitialized Locals Compile Warning = "Conservative"
Require Prototypes = True
Require Return Values = True
Enable Pointer Mismatch Warning = False
Enable Unreachable Code Warning = False
Enable Unreferenced Identifiers Warning = False
Enable Assignment In Conditional Warning = False
Enable C99 Extensions = True
Stack Size = 250000
Image Base Address = 4194304
Image Base Address x64 = 4194304
Compiler Defines = "/DWIN32_LEAN_AND_MEAN"
Sign = False
Sign Store = ""
Sign Certificate = ""
Sign Timestamp URL = ""
Sign URL = ""
Manifest Embed = False
Icon File Is Rel = False
Icon File = ""
Application Title = ""
DLL Import Library Choice = "Gen Lib For Current Mode"
Use IVI Subdirectories for Import Libraries = False
Use VXIPNP Subdirectories for Import Libraries = False
Use Dflt Import Lib Base Name = True
Where to Copy DLL = "Do not copy"
Custom Directory to Copy DLL Is Rel = False
Custom Directory to Copy DLL = ""
Generate Source Documentation = "None"
Runtime Support = "Full Runtime Support"
Embed Project .UIRs = False
Generate Map File = False
Create Console Application = False
Using LoadExternalModule = False
DLL Exports = "Include File Symbols"
Register ActiveX Server = False
Add Type Lib To DLL = False
Include Type Lib Help Links = False
TLB Help Style = "HLP"
Type Lib FP File Is Rel = False
Type Lib FP File = ""

[Default Build Config Release]
Config Name = "Release"
Is 64-Bit = False
Is Release = True
Default Calling Convention = "cdecl"
Uninitialized Locals Compile Warning = "Conservative"
Require Prototypes = True
Require Return Values = True
Enable Pointer Mismatch Warning = False
Enable Unreachable Code Warning = False
Enable Unreferenced Identifiers Warning = False
Enable Assignment In Conditional Warning = False
Enable C99 Extensions = True
Stack Size = 250000
Image Base Address = 4194304
Image Base Address x64 = 4194304
Compiler Defines = "/DWIN32_LEAN_AND_MEAN"
Sign = False
Sign Store = ""
Sign Certificate = ""
Sign Timestamp URL = ""
Sign URL = ""
Manifest Embed = False
Icon File Is Rel = False
Icon File = ""
Application Title = ""
DLL Import Library Choice = "Gen Lib For Current Mode"
Use IVI Subdirectories for Import Libraries = False
Use VXIPNP Subdirectories for Import Libraries = False
Use Dflt Import Lib Base Name = True
Where to Copy DLL = "Do not copy"
Custom Directory to Copy DLL Is Rel = False
Custom Directory to Copy DLL = ""
Generate Source Documentation = "None"
Runtime Support = "Full Runtime Support"
Embed Project .UIRs = False
Generate Map File = False
Create Console Application = False
Using LoadExternalModule = False
DLL Exports = "Include File Symbols"
Register ActiveX Server = False
Add Type Lib To DLL = False
Include Type Lib Help Links = False
TLB Help Style = "HLP"
Type Lib FP File Is Rel = False
Type Lib FP File = ""

[Default Build Config Debug64]
Config Name = "Debug64"
Is 64-Bit = True
Is Release = False
Default Calling Convention = "cdecl"
Uninitialized Locals Compile Warning = "Conservative"
Require Prototypes = True
Require Return Values = True
Enable Pointer Mismatch Warning = False
Enable Unreachable Code Warning = False
Enable Unreferenced Identifiers Warning = False
Enable Assignment In Conditional Warning = False
Enable C99 Extensions = True
Stack Size = 250000
Image Base Address = 4194304
Image Base Address x64 = 4194304
Compiler Defines = "/DWIN32_LEAN_AND_MEAN"
Sign = False
Sign Store = ""
Sign Certificate = ""
Sign Timestamp URL = ""
Sign URL = ""
Manifest Embed = False
Icon File Is Rel = False
Icon File = ""
Application Title = ""
DLL Import Library Choice = "Gen Lib For Current Mode"
Use IVI Subdirectories for Import Libraries = False
Use VXIPNP Subdirectories for Import Libraries = False
Use Dflt Import Lib Base Name = True
Where to Copy DLL = "Do not copy"
Custom Directory to Copy DLL Is Rel = False
Custom Directory to Copy DLL = ""
Generate Source Documentation = "None"
Runtime Support = "Full Runtime Support"
Embed Project .UIRs = False
Generate Map File = False
Create Console Application = False
Using LoadExternalModule = False
DLL Exports = "Include File Symbols"
Register ActiveX Server = False
Add Type Lib To DLL = False
Include Type Lib Help Links = False
TLB Help Style = "HLP"
Type Lib FP File Is Rel = False
Type Lib FP File = ""

[Default Build Config Release64]
Config Name = "Release64"
Is 64-Bit = True
Is Release = True
Default Calling Convention = "cdecl"
Uninitialized Locals Compile Warning = "Conservative"
Require Prototypes = True
Require Return Values = True
Enable Pointer Mismatch Warning = False
Enable Unreachable Code Warning = False
Enable Unreferenced Identifiers Warning = False
Enable Assignment In Conditional Warning = False
Enable C99 Extensions = True
Stack Size = 250000
Image Base Address = 4194304
Image Base Address x64 = 4194304
Compiler Defines = "/DWIN32_LEAN_AND_MEAN"
Sign = False
Sign Store = ""
Sign Certificate = ""
Sign Timestamp URL = ""
Sign URL = ""
Manifest Embed = False
Icon File Is Rel = False
Icon File = ""
Application Title = ""
DLL Import Library Choice = "Gen Lib For Current Mode"
Use IVI Subdirectories for Import Libraries = False
Use VXIPNP Subdirectories for Import Libraries = False
Use Dflt Import Lib Base Name = True
Where to Copy DLL = "Do not copy"
Custom Directory to Copy DLL Is Rel = False
Custom Directory to Copy DLL = ""
Generate Source Documentation = "None"
Runtime Support = "Full Runtime Support"
Embed Project .UIRs = False
Generate Map File = False
Create Console Application = False
Using LoadExternalModule = False
DLL Exports = "Include File Symbols"
Register ActiveX Server = False
Add Type Lib To DLL = False
Include Type Lib Help Links = False
TLB Help Style = "HLP"
Type Lib FP File Is Rel = False
Type Lib FP File = ""

[Compiler Options]
Default Calling Convention = "cdecl"
Require Prototypes = True
Require Return Values = True
Enable Pointer Mismatch Warning = False
Enable Unreachable Code Warning = False
Enable Unreferenced Identifiers Warning = False
Enable Assignment In Conditional Warning = False
O Option Compatible With 5.0 = False
Enable C99 Extensions = True
Uninitialized Locals Compile Warning = "Conservative"
Precompile Prefix Header = False
Prefix Header File = ""

[Run Options]
Stack Size = 250000
Image Base Address = 4194304
Image Base Address x64 = 4194304

[Compiler Defines]
Compiler Defines = "/DWIN32_LEAN_AND_MEAN"

[Create Executable]
Executable File_Debug Is Rel = True
Executable File_Debug Rel To = "Project"
Executable File_Debug Rel Path = "Fresdiff1.exe"
Executable File_Debug = "/c/Users/rgirish2/Desktop/Fresnel_diff/Fresdiff1.exe"
Executable File_Release Is Rel = True
Executable File_Release Rel To = "Project"
Executable File_Release Rel Path = "Fresdiff1.exe"
Executable File_Release = "/c/Users/rgirish2/Desktop/Fresnel_diff/Fresdiff1.exe"
Executable File_Debug64 Is Rel = True
Executable File_Debug64 Rel To = "Project"
Executable File_Debug64 Rel Path = "Fresdiff1.exe"
Executable File_Debug64 = "/c/Users/rgirish2/Desktop/Fresnel_diff/Fresdiff1.exe"
Executable File_Release64 Is Rel = True
Executable File_Release64 Rel To = "Project"
Executable File_Release64 Rel Path = "Fresdiff1.exe"
Executable File_Release64 = "/c/Users/rgirish2/Desktop/Fresnel_diff/Fresdiff1.exe"
Icon File Is Rel = False
Icon File = ""
Application Title = ""
DLL Exports = "Include File Symbols"
DLL Import Library Choice = "Gen Lib For Current Mode"
Use IVI Subdirectories for Import Libraries = False
Use VXIPNP Subdirectories for Import Libraries = False
Use Dflt Import Lib Base Name = True
Where to Copy DLL = "Do not copy"
Custom Directory to Copy DLL Is Rel = False
Custom Directory to Copy DLL = ""
Generate Source Documentation = "None"
Add Type Lib To DLL = False
Include Type Lib Help Links = False
TLB Help Style = "HLP"
Type Lib FP File Is Rel = False
Type Lib FP File = ""
Type Lib Guid = ""
Runtime Support = "Full Runtime Support"
Instrument Driver Support Only = False
Embed Project .UIRs = False
Generate Map File = False

[External Compiler Support]
UIR Callbacks File Option = 0
Using LoadExternalModule = False
Create Project Symbols File = True
UIR Callbacks Obj File Is Rel = False
UIR Callbacks Obj File = ""
Project Symbols H File Is Rel = False
Project Symbols H File = ""
Project Symbols Obj File Is Rel = False
Project Symbols Obj File = ""

[ActiveX Server Options]
Specification File Is Rel = False
Specification File = ""
Source File Is Rel = False
Source File = ""
Include File Is Rel = False
Include File = ""
IDL File Is Rel = False
IDL File = ""
Register ActiveX Server = False

[Signing Info]
Sign = False
Sign Debug Build = False
Store = ""
Certificate = ""
Timestamp URL = ""
URL = ""

[Manifest Info]
Embed = False

[tpcSection]
tpcEnabled = 0
tpcOverrideEnvironment = 0
tpcEnabled x64 = 0
tpcOverrideEnvironment x64 = 0

